^C:\USERS\SOPHIE\DOCUMENTS\FUTUREGAMES\GLPROJECT\GLPROJECT\STDAFX.CPP
C:\USERS\SOPHIE\DOCUMENTS\FUTUREGAMES\GLPROJECT\GLPROJECT\DEBUG\GLPROJECT.PCH
C:\USERS\SOPHIE\DOCUMENTS\FUTUREGAMES\GLPROJECT\GLPROJECT\DEBUG\VC141.PDB
C:\USERS\SOPHIE\DOCUMENTS\FUTUREGAMES\GLPROJECT\GLPROJECT\DEBUG\VC141.IDB
C:\USERS\SOPHIE\DOCUMENTS\FUTUREGAMES\GLPROJECT\GLPROJECT\DEBUG\STDAFX.OBJ
^C:\USERS\SOPHIE\DOCUMENTS\FUTUREGAMES\GLPROJECT\GLPROJECT\CAMERA.CPP|C:\USERS\SOPHIE\DOCUMENTS\FUTUREGAMES\GLPROJECT\GLPROJECT\CUBEMAP.CPP|C:\USERS\SOPHIE\DOCUMENTS\FUTUREGAMES\GLPROJECT\GLPROJECT\DIRLIGHT.CPP|C:\USERS\SOPHIE\DOCUMENTS\FUTUREGAMES\GLPROJECT\GLPROJECT\GAMEOBJECT.CPP|C:\USERS\SOPHIE\DOCUMENTS\FUTUREGAMES\GLPROJECT\GLPROJECT\GBUFFER.CPP|C:\USERS\SOPHIE\DOCUMENTS\FUTUREGAMES\GLPROJECT\GLPROJECT\GLPROJECT.CPP|C:\USERS\SOPHIE\DOCUMENTS\FUTUREGAMES\GLPROJECT\GLPROJECT\MATERIAL.CPP|C:\USERS\SOPHIE\DOCUMENTS\FUTUREGAMES\GLPROJECT\GLPROJECT\MESH.CPP|C:\USERS\SOPHIE\DOCUMENTS\FUTUREGAMES\GLPROJECT\GLPROJECT\MODEL.CPP|C:\USERS\SOPHIE\DOCUMENTS\FUTUREGAMES\GLPROJECT\GLPROJECT\POINTLIGHT.CPP|C:\USERS\SOPHIE\DOCUMENTS\FUTUREGAMES\GLPROJECT\GLPROJECT\RENDERER.CPP|C:\USERS\SOPHIE\DOCUMENTS\FUTUREGAMES\GLPROJECT\GLPROJECT\RESOURCE.CPP|C:\USERS\SOPHIE\DOCUMENTS\FUTUREGAMES\GLPROJECT\GLPROJECT\RESOURCEOBJECT.CPP|C:\USERS\SOPHIE\DOCUMENTS\FUTUREGAMES\GLPROJECT\GLPROJECT\SHADER.CPP|C:\USERS\SOPHIE\DOCUMENTS\FUTUREGAMES\GLPROJECT\GLPROJECT\TEXTURE.CPP
C:\USERS\SOPHIE\DOCUMENTS\FUTUREGAMES\GLPROJECT\GLPROJECT\DEBUG\VC141.PDB
C:\USERS\SOPHIE\DOCUMENTS\FUTUREGAMES\GLPROJECT\GLPROJECT\DEBUG\VC141.IDB
C:\USERS\SOPHIE\DOCUMENTS\FUTUREGAMES\GLPROJECT\GLPROJECT\DEBUG\CAMERA.OBJ
C:\USERS\SOPHIE\DOCUMENTS\FUTUREGAMES\GLPROJECT\GLPROJECT\DEBUG\CUBEMAP.OBJ
C:\USERS\SOPHIE\DOCUMENTS\FUTUREGAMES\GLPROJECT\GLPROJECT\DEBUG\DIRLIGHT.OBJ
C:\USERS\SOPHIE\DOCUMENTS\FUTUREGAMES\GLPROJECT\GLPROJECT\DEBUG\GAMEOBJECT.OBJ
C:\USERS\SOPHIE\DOCUMENTS\FUTUREGAMES\GLPROJECT\GLPROJECT\DEBUG\GBUFFER.OBJ
C:\USERS\SOPHIE\DOCUMENTS\FUTUREGAMES\GLPROJECT\GLPROJECT\DEBUG\GLPROJECT.OBJ
C:\USERS\SOPHIE\DOCUMENTS\FUTUREGAMES\GLPROJECT\GLPROJECT\DEBUG\MATERIAL.OBJ
C:\USERS\SOPHIE\DOCUMENTS\FUTUREGAMES\GLPROJECT\GLPROJECT\DEBUG\MESH.OBJ
C:\USERS\SOPHIE\DOCUMENTS\FUTUREGAMES\GLPROJECT\GLPROJECT\DEBUG\MODEL.OBJ
C:\USERS\SOPHIE\DOCUMENTS\FUTUREGAMES\GLPROJECT\GLPROJECT\DEBUG\POINTLIGHT.OBJ
C:\USERS\SOPHIE\DOCUMENTS\FUTUREGAMES\GLPROJECT\GLPROJECT\DEBUG\RENDERER.OBJ
C:\USERS\SOPHIE\DOCUMENTS\FUTUREGAMES\GLPROJECT\GLPROJECT\DEBUG\RESOURCE.OBJ
C:\USERS\SOPHIE\DOCUMENTS\FUTUREGAMES\GLPROJECT\GLPROJECT\DEBUG\RESOURCEOBJECT.OBJ
C:\USERS\SOPHIE\DOCUMENTS\FUTUREGAMES\GLPROJECT\GLPROJECT\DEBUG\SHADER.OBJ
C:\USERS\SOPHIE\DOCUMENTS\FUTUREGAMES\GLPROJECT\GLPROJECT\DEBUG\TEXTURE.OBJ
^C:\USERS\SOPHIE\DOCUMENTS\FUTUREGAMES\GLPROJECT\GLPROJECT\CAMERA.CPP
C:\USERS\SOPHIE\DOCUMENTS\FUTUREGAMES\GLPROJECT\GLPROJECT\DEBUG\VC141.PDB
^C:\USERS\SOPHIE\DOCUMENTS\FUTUREGAMES\GLPROJECT\GLPROJECT\CUBEMAP.CPP
C:\USERS\SOPHIE\DOCUMENTS\FUTUREGAMES\GLPROJECT\GLPROJECT\DEBUG\VC141.PDB
^C:\USERS\SOPHIE\DOCUMENTS\FUTUREGAMES\GLPROJECT\GLPROJECT\DIRLIGHT.CPP
C:\USERS\SOPHIE\DOCUMENTS\FUTUREGAMES\GLPROJECT\GLPROJECT\DEBUG\VC141.PDB
^C:\USERS\SOPHIE\DOCUMENTS\FUTUREGAMES\GLPROJECT\GLPROJECT\GAMEOBJECT.CPP
C:\USERS\SOPHIE\DOCUMENTS\FUTUREGAMES\GLPROJECT\GLPROJECT\DEBUG\VC141.PDB
^C:\USERS\SOPHIE\DOCUMENTS\FUTUREGAMES\GLPROJECT\GLPROJECT\GBUFFER.CPP
C:\USERS\SOPHIE\DOCUMENTS\FUTUREGAMES\GLPROJECT\GLPROJECT\DEBUG\VC141.PDB
^C:\USERS\SOPHIE\DOCUMENTS\FUTUREGAMES\GLPROJECT\GLPROJECT\GLPROJECT.CPP
C:\USERS\SOPHIE\DOCUMENTS\FUTUREGAMES\GLPROJECT\GLPROJECT\DEBUG\VC141.PDB
C:\USERS\SOPHIE\DOCUMENTS\FUTUREGAMES\GLPROJECT\GLPROJECT\DEBUG\VC141.IDB
C:\USERS\SOPHIE\DOCUMENTS\FUTUREGAMES\GLPROJECT\GLPROJECT\DEBUG\GLPROJECT.OBJ
^C:\USERS\SOPHIE\DOCUMENTS\FUTUREGAMES\GLPROJECT\GLPROJECT\MATERIAL.CPP
C:\USERS\SOPHIE\DOCUMENTS\FUTUREGAMES\GLPROJECT\GLPROJECT\DEBUG\VC141.PDB
^C:\USERS\SOPHIE\DOCUMENTS\FUTUREGAMES\GLPROJECT\GLPROJECT\MESH.CPP
C:\USERS\SOPHIE\DOCUMENTS\FUTUREGAMES\GLPROJECT\GLPROJECT\DEBUG\VC141.PDB
C:\USERS\SOPHIE\DOCUMENTS\FUTUREGAMES\GLPROJECT\GLPROJECT\DEBUG\VC141.IDB
C:\USERS\SOPHIE\DOCUMENTS\FUTUREGAMES\GLPROJECT\GLPROJECT\DEBUG\MESH.OBJ
^C:\USERS\SOPHIE\DOCUMENTS\FUTUREGAMES\GLPROJECT\GLPROJECT\MODEL.CPP
C:\USERS\SOPHIE\DOCUMENTS\FUTUREGAMES\GLPROJECT\GLPROJECT\DEBUG\VC141.PDB
^C:\USERS\SOPHIE\DOCUMENTS\FUTUREGAMES\GLPROJECT\GLPROJECT\POINTLIGHT.CPP
C:\USERS\SOPHIE\DOCUMENTS\FUTUREGAMES\GLPROJECT\GLPROJECT\DEBUG\VC141.PDB
C:\USERS\SOPHIE\DOCUMENTS\FUTUREGAMES\GLPROJECT\GLPROJECT\DEBUG\VC141.IDB
C:\USERS\SOPHIE\DOCUMENTS\FUTUREGAMES\GLPROJECT\GLPROJECT\DEBUG\POINTLIGHT.OBJ
^C:\USERS\SOPHIE\DOCUMENTS\FUTUREGAMES\GLPROJECT\GLPROJECT\RENDERER.CPP
C:\USERS\SOPHIE\DOCUMENTS\FUTUREGAMES\GLPROJECT\GLPROJECT\DEBUG\VC141.PDB
C:\USERS\SOPHIE\DOCUMENTS\FUTUREGAMES\GLPROJECT\GLPROJECT\DEBUG\VC141.IDB
C:\USERS\SOPHIE\DOCUMENTS\FUTUREGAMES\GLPROJECT\GLPROJECT\DEBUG\RENDERER.OBJ
^C:\USERS\SOPHIE\DOCUMENTS\FUTUREGAMES\GLPROJECT\GLPROJECT\RESOURCE.CPP
C:\USERS\SOPHIE\DOCUMENTS\FUTUREGAMES\GLPROJECT\GLPROJECT\DEBUG\VC141.PDB
C:\USERS\SOPHIE\DOCUMENTS\FUTUREGAMES\GLPROJECT\GLPROJECT\DEBUG\VC141.IDB
C:\USERS\SOPHIE\DOCUMENTS\FUTUREGAMES\GLPROJECT\GLPROJECT\DEBUG\RESOURCE.OBJ
^C:\USERS\SOPHIE\DOCUMENTS\FUTUREGAMES\GLPROJECT\GLPROJECT\RESOURCEOBJECT.CPP
C:\USERS\SOPHIE\DOCUMENTS\FUTUREGAMES\GLPROJECT\GLPROJECT\DEBUG\VC141.PDB
^C:\USERS\SOPHIE\DOCUMENTS\FUTUREGAMES\GLPROJECT\GLPROJECT\SHADER.CPP
C:\USERS\SOPHIE\DOCUMENTS\FUTUREGAMES\GLPROJECT\GLPROJECT\DEBUG\VC141.PDB
^C:\USERS\SOPHIE\DOCUMENTS\FUTUREGAMES\GLPROJECT\GLPROJECT\TEXTURE.CPP
C:\USERS\SOPHIE\DOCUMENTS\FUTUREGAMES\GLPROJECT\GLPROJECT\DEBUG\VC141.PDB
^C:\USERS\SOPHIE\DOCUMENTS\FUTUREGAMES\GLPROJECT\GLPROJECT\RESOURCE.CPP|C:\USERS\SOPHIE\DOCUMENTS\FUTUREGAMES\GLPROJECT\GLPROJECT\TEXTURE.CPP
C:\USERS\SOPHIE\DOCUMENTS\FUTUREGAMES\GLPROJECT\GLPROJECT\DEBUG\VC141.PDB
C:\USERS\SOPHIE\DOCUMENTS\FUTUREGAMES\GLPROJECT\GLPROJECT\DEBUG\VC141.IDB
C:\USERS\SOPHIE\DOCUMENTS\FUTUREGAMES\GLPROJECT\GLPROJECT\DEBUG\RESOURCE.OBJ
C:\USERS\SOPHIE\DOCUMENTS\FUTUREGAMES\GLPROJECT\GLPROJECT\DEBUG\TEXTURE.OBJ
^C:\USERS\SOPHIE\DOCUMENTS\FUTUREGAMES\GLPROJECT\GLPROJECT\GLPROJECT.CPP|C:\USERS\SOPHIE\DOCUMENTS\FUTUREGAMES\GLPROJECT\GLPROJECT\MESH.CPP|C:\USERS\SOPHIE\DOCUMENTS\FUTUREGAMES\GLPROJECT\GLPROJECT\MODEL.CPP|C:\USERS\SOPHIE\DOCUMENTS\FUTUREGAMES\GLPROJECT\GLPROJECT\RENDERER.CPP|C:\USERS\SOPHIE\DOCUMENTS\FUTUREGAMES\GLPROJECT\GLPROJECT\RESOURCE.CPP
C:\USERS\SOPHIE\DOCUMENTS\FUTUREGAMES\GLPROJECT\GLPROJECT\DEBUG\VC141.PDB
C:\USERS\SOPHIE\DOCUMENTS\FUTUREGAMES\GLPROJECT\GLPROJECT\DEBUG\VC141.IDB
C:\USERS\SOPHIE\DOCUMENTS\FUTUREGAMES\GLPROJECT\GLPROJECT\DEBUG\MESH.OBJ
C:\USERS\SOPHIE\DOCUMENTS\FUTUREGAMES\GLPROJECT\GLPROJECT\DEBUG\MODEL.OBJ
C:\USERS\SOPHIE\DOCUMENTS\FUTUREGAMES\GLPROJECT\GLPROJECT\DEBUG\RENDERER.OBJ
C:\USERS\SOPHIE\DOCUMENTS\FUTUREGAMES\GLPROJECT\GLPROJECT\DEBUG\GLPROJECT.OBJ
C:\USERS\SOPHIE\DOCUMENTS\FUTUREGAMES\GLPROJECT\GLPROJECT\DEBUG\RESOURCE.OBJ
^C:\USERS\SOPHIE\DOCUMENTS\FUTUREGAMES\GLPROJECT\GLPROJECT\GLPROJECT.CPP|C:\USERS\SOPHIE\DOCUMENTS\FUTUREGAMES\GLPROJECT\GLPROJECT\POINTLIGHT.CPP|C:\USERS\SOPHIE\DOCUMENTS\FUTUREGAMES\GLPROJECT\GLPROJECT\RENDERER.CPP|C:\USERS\SOPHIE\DOCUMENTS\FUTUREGAMES\GLPROJECT\GLPROJECT\RESOURCE.CPP
C:\USERS\SOPHIE\DOCUMENTS\FUTUREGAMES\GLPROJECT\GLPROJECT\DEBUG\VC141.PDB
C:\USERS\SOPHIE\DOCUMENTS\FUTUREGAMES\GLPROJECT\GLPROJECT\DEBUG\VC141.IDB
C:\USERS\SOPHIE\DOCUMENTS\FUTUREGAMES\GLPROJECT\GLPROJECT\DEBUG\RESOURCE.OBJ
^C:\USERS\SOPHIE\DOCUMENTS\FG-ENGINE\GLPROJECT\STDAFX.CPP
C:\USERS\SOPHIE\DOCUMENTS\FG-ENGINE\GLPROJECT\DEBUG\GLPROJECT.PCH
C:\USERS\SOPHIE\DOCUMENTS\FG-ENGINE\GLPROJECT\DEBUG\VC141.PDB
C:\USERS\SOPHIE\DOCUMENTS\FG-ENGINE\GLPROJECT\DEBUG\VC141.IDB
C:\USERS\SOPHIE\DOCUMENTS\FG-ENGINE\GLPROJECT\DEBUG\STDAFX.OBJ
^C:\USERS\SOPHIE\DOCUMENTS\FG-ENGINE\GLPROJECT\CAMERA.CPP|C:\USERS\SOPHIE\DOCUMENTS\FG-ENGINE\GLPROJECT\CUBEMAP.CPP|C:\USERS\SOPHIE\DOCUMENTS\FG-ENGINE\GLPROJECT\DIRLIGHT.CPP|C:\USERS\SOPHIE\DOCUMENTS\FG-ENGINE\GLPROJECT\GAMEOBJECT.CPP|C:\USERS\SOPHIE\DOCUMENTS\FG-ENGINE\GLPROJECT\GBUFFER.CPP|C:\USERS\SOPHIE\DOCUMENTS\FG-ENGINE\GLPROJECT\GLPROJECT.CPP|C:\USERS\SOPHIE\DOCUMENTS\FG-ENGINE\GLPROJECT\MATERIAL.CPP|C:\USERS\SOPHIE\DOCUMENTS\FG-ENGINE\GLPROJECT\MESH.CPP|C:\USERS\SOPHIE\DOCUMENTS\FG-ENGINE\GLPROJECT\MODEL.CPP|C:\USERS\SOPHIE\DOCUMENTS\FG-ENGINE\GLPROJECT\POINTLIGHT.CPP|C:\USERS\SOPHIE\DOCUMENTS\FG-ENGINE\GLPROJECT\RENDERER.CPP|C:\USERS\SOPHIE\DOCUMENTS\FG-ENGINE\GLPROJECT\RESOURCE.CPP|C:\USERS\SOPHIE\DOCUMENTS\FG-ENGINE\GLPROJECT\RESOURCEOBJECT.CPP|C:\USERS\SOPHIE\DOCUMENTS\FG-ENGINE\GLPROJECT\SHADER.CPP|C:\USERS\SOPHIE\DOCUMENTS\FG-ENGINE\GLPROJECT\TEXTURE.CPP
C:\USERS\SOPHIE\DOCUMENTS\FG-ENGINE\GLPROJECT\DEBUG\VC141.PDB
C:\USERS\SOPHIE\DOCUMENTS\FG-ENGINE\GLPROJECT\DEBUG\VC141.IDB
C:\USERS\SOPHIE\DOCUMENTS\FG-ENGINE\GLPROJECT\DEBUG\CAMERA.OBJ
C:\USERS\SOPHIE\DOCUMENTS\FG-ENGINE\GLPROJECT\DEBUG\CUBEMAP.OBJ
C:\USERS\SOPHIE\DOCUMENTS\FG-ENGINE\GLPROJECT\DEBUG\DIRLIGHT.OBJ
C:\USERS\SOPHIE\DOCUMENTS\FG-ENGINE\GLPROJECT\DEBUG\GAMEOBJECT.OBJ
C:\USERS\SOPHIE\DOCUMENTS\FG-ENGINE\GLPROJECT\DEBUG\GBUFFER.OBJ
C:\USERS\SOPHIE\DOCUMENTS\FG-ENGINE\GLPROJECT\DEBUG\GLPROJECT.OBJ
C:\USERS\SOPHIE\DOCUMENTS\FG-ENGINE\GLPROJECT\DEBUG\MATERIAL.OBJ
C:\USERS\SOPHIE\DOCUMENTS\FG-ENGINE\GLPROJECT\DEBUG\MESH.OBJ
C:\USERS\SOPHIE\DOCUMENTS\FG-ENGINE\GLPROJECT\DEBUG\MODEL.OBJ
C:\USERS\SOPHIE\DOCUMENTS\FG-ENGINE\GLPROJECT\DEBUG\POINTLIGHT.OBJ
C:\USERS\SOPHIE\DOCUMENTS\FG-ENGINE\GLPROJECT\DEBUG\RENDERER.OBJ
C:\USERS\SOPHIE\DOCUMENTS\FG-ENGINE\GLPROJECT\DEBUG\RESOURCE.OBJ
C:\USERS\SOPHIE\DOCUMENTS\FG-ENGINE\GLPROJECT\DEBUG\RESOURCEOBJECT.OBJ
C:\USERS\SOPHIE\DOCUMENTS\FG-ENGINE\GLPROJECT\DEBUG\SHADER.OBJ
C:\USERS\SOPHIE\DOCUMENTS\FG-ENGINE\GLPROJECT\DEBUG\TEXTURE.OBJ
^C:\USERS\SOPHIE\DOCUMENTS\FG-ENGINE\GLPROJECT\CAMERA.CPP
C:\USERS\SOPHIE\DOCUMENTS\FG-ENGINE\GLPROJECT\DEBUG\VC141.PDB
^C:\USERS\SOPHIE\DOCUMENTS\FG-ENGINE\GLPROJECT\CUBEMAP.CPP
C:\USERS\SOPHIE\DOCUMENTS\FG-ENGINE\GLPROJECT\DEBUG\VC141.PDB
^C:\USERS\SOPHIE\DOCUMENTS\FG-ENGINE\GLPROJECT\DIRLIGHT.CPP
C:\USERS\SOPHIE\DOCUMENTS\FG-ENGINE\GLPROJECT\DEBUG\VC141.PDB
^C:\USERS\SOPHIE\DOCUMENTS\FG-ENGINE\GLPROJECT\GAMEOBJECT.CPP
C:\USERS\SOPHIE\DOCUMENTS\FG-ENGINE\GLPROJECT\DEBUG\VC141.PDB
^C:\USERS\SOPHIE\DOCUMENTS\FG-ENGINE\GLPROJECT\GBUFFER.CPP
C:\USERS\SOPHIE\DOCUMENTS\FG-ENGINE\GLPROJECT\DEBUG\VC141.PDB
^C:\USERS\SOPHIE\DOCUMENTS\FG-ENGINE\GLPROJECT\GLPROJECT.CPP
C:\USERS\SOPHIE\DOCUMENTS\FG-ENGINE\GLPROJECT\DEBUG\VC141.PDB
C:\USERS\SOPHIE\DOCUMENTS\FG-ENGINE\GLPROJECT\DEBUG\VC141.IDB
C:\USERS\SOPHIE\DOCUMENTS\FG-ENGINE\GLPROJECT\DEBUG\GLPROJECT.OBJ
^C:\USERS\SOPHIE\DOCUMENTS\FG-ENGINE\GLPROJECT\MATERIAL.CPP
C:\USERS\SOPHIE\DOCUMENTS\FG-ENGINE\GLPROJECT\DEBUG\VC141.PDB
^C:\USERS\SOPHIE\DOCUMENTS\FG-ENGINE\GLPROJECT\MESH.CPP
C:\USERS\SOPHIE\DOCUMENTS\FG-ENGINE\GLPROJECT\DEBUG\VC141.PDB
^C:\USERS\SOPHIE\DOCUMENTS\FG-ENGINE\GLPROJECT\MODEL.CPP
C:\USERS\SOPHIE\DOCUMENTS\FG-ENGINE\GLPROJECT\DEBUG\VC141.PDB
^C:\USERS\SOPHIE\DOCUMENTS\FG-ENGINE\GLPROJECT\POINTLIGHT.CPP
C:\USERS\SOPHIE\DOCUMENTS\FG-ENGINE\GLPROJECT\DEBUG\VC141.PDB
^C:\USERS\SOPHIE\DOCUMENTS\FG-ENGINE\GLPROJECT\RENDERER.CPP
C:\USERS\SOPHIE\DOCUMENTS\FG-ENGINE\GLPROJECT\DEBUG\VC141.PDB
^C:\USERS\SOPHIE\DOCUMENTS\FG-ENGINE\GLPROJECT\RESOURCE.CPP
C:\USERS\SOPHIE\DOCUMENTS\FG-ENGINE\GLPROJECT\DEBUG\VC141.PDB
^C:\USERS\SOPHIE\DOCUMENTS\FG-ENGINE\GLPROJECT\RESOURCEOBJECT.CPP
C:\USERS\SOPHIE\DOCUMENTS\FG-ENGINE\GLPROJECT\DEBUG\VC141.PDB
^C:\USERS\SOPHIE\DOCUMENTS\FG-ENGINE\GLPROJECT\SHADER.CPP
C:\USERS\SOPHIE\DOCUMENTS\FG-ENGINE\GLPROJECT\DEBUG\VC141.PDB
^C:\USERS\SOPHIE\DOCUMENTS\FG-ENGINE\GLPROJECT\TEXTURE.CPP
C:\USERS\SOPHIE\DOCUMENTS\FG-ENGINE\GLPROJECT\DEBUG\VC141.PDB
